ejemplo1/simulation/qsim/ejemplo1.msim.vcd
$comment
	File created using the following command:
		vcd file ejemplo1.msim.vcd -direction
$end
$date
	Fri Sep 05 11:34:52 2025
$end
$version
	ModelSim Version 10.1d
$end
$timescale
	1ps
$end
$scope module ejemplo1_vlg_vec_tst $end
$var reg 4 ! A [3:0] $end
$var reg 2 " S [1:0] $end
$var wire 1 # Z $end
$var wire 1 $ sampler $end
$scope module i1 $end
$var wire 1 % gnd $end
$var wire 1 & vcc $end
$var wire 1 ' unknown $end
$var tri1 1 ( devclrn $end
$var tri1 1 ) devpor $end
$var tri1 1 * devoe $end
$var wire 1 + Z~output_o $end
$var wire 1 , A[2]~input_o $end
$var wire 1 - S[1]~input_o $end
$var wire 1 . A[1]~input_o $end
$var wire 1 / S[0]~input_o $end
$var wire 1 0 A[0]~input_o $end
$var wire 1 1 Z~0_combout $end
$var wire 1 2 A[3]~input_o $end
$var wire 1 3 Z~1_combout $end
$upscope $end
$upscope $end
$enddefinitions $end
#0
$dumpvars
b0 !
b1 "
0#
x$
0%
1&
x'
1(
1)
1*
0+
0,
0-
0.
1/
00
01
02
03
$end
#100000
b10 !
b11 !
10
1.
0$
11
13
1+
1#
#200000
b1011 !
b1001 !
b1000 !
00
0.
12
1$
01
03
0+
0#
#300000
b1100 !
b100 !
b101 !
10
1,
02
0$
#400000
b100 !
00
1$
#500000
b110 !
b111 !
10
1.
0$
11
13
1+
1#
#600000
b1111 !
b1101 !
b1100 !
00
0.
12
1$
01
03
0+
0#
#700000
b1110 !
b1111 !
10
1.
0$
11
13
1+
1#
#900000
b1011 !
b11 !
0,
02
1$
